{
  "count":29,
  "next":"https://portal.light-it.net/api/meetups/reports/?page=3&page_size=10&status=in_progress&status=finished",
  "previous":"https://portal.light-it.net/api/meetups/reports/?page_size=10&status=in_progress&status=finished",
  "results1":[
    {
      "id": 19,
      "email": "andrew@data.com",
      "register_date": "2018-04-20T15:00:00Z",
      "verification_date": "2018-04-20T15:00:00Z",
      "membership": "monthly_gold",
      "last_visit": "2018-04-20T15:00:00Z"
    },
    {
      "id": 19,
      "email": "andrew@data.com",
      "register_date": "2018-04-20T15:00:00Z",
      "verification_date": "2018-04-20T15:00:00Z",
      "membership": "monthly_gold",
      "last_visit": "2018-04-20T15:00:00Z"
    }
  ],
  "results": [{
    "id":25,
    "name":"tatard519",
    "registration_time": "2018-04-20T15:00:00Z",
    "email_verification_time": "2018-04-20T15:00:00Z",
    "last_activity_time": "2018-04-20T15:00:00Z",
    "email":"tatard519@gmail.com",
    "account":{"currency":"GBP","address":null,"city":null,"zip":null,"country":null,"province":null},
    "current_plan":{"id":2,"name":"Gold Monthly","alias_name":"gold_monthly","amount":4000,"period":"month"},
    "next_plan":null
  }, {
    "id":25,
    "name":"tatard519",
    "registration_time": "2018-04-20T15:00:00Z",
    "email_verification_time": "2018-04-20T15:00:00Z",
    "last_activity_time": "2018-04-20T15:00:00Z",
    "email":"tatard519@gmail.com",
    "account":{"currency":"GBP","address":null,"city":null,"zip":null,"country":null,"province":null},
    "current_plan":{"id":2,"name":"Gold Monthly","alias_name":"gold_monthly","amount":4000,"period":"month"},
    "next_plan":null
  }]
}
